<?xml version="1.0" encoding="UTF-8" standalone="no"?>
<!-- Created with Inkscape (http://www.inkscape.org/) -->

<svg
   width="210mm"
   height="297mm"
   viewBox="0 0 210 297"
   version="1.1"
   id="svg5"
   inkscape:version="1.2.1 (9c6d41e410, 2022-07-14, custom)"
   sodipodi:docname="if_else_elif_statement.svg"
   inkscape:export-filename="if_statement.png"
   inkscape:export-xdpi="190"
   inkscape:export-ydpi="190"
   xmlns:inkscape="http://www.inkscape.org/namespaces/inkscape"
   xmlns:sodipodi="http://sodipodi.sourceforge.net/DTD/sodipodi-0.dtd"
   xmlns="http://www.w3.org/2000/svg"
   xmlns:svg="http://www.w3.org/2000/svg">
  <sodipodi:namedview
     id="namedview7"
     pagecolor="#313131"
     bordercolor="#999999"
     borderopacity="1"
     inkscape:showpageshadow="0"
     inkscape:pageopacity="0"
     inkscape:pagecheckerboard="0"
     inkscape:deskcolor="#d1d1d1"
     inkscape:document-units="mm"
     showgrid="false"
     inkscape:zoom="0.914906"
     inkscape:cx="159.57924"
     inkscape:cy="556.34131"
     inkscape:window-width="2560"
     inkscape:window-height="1385"
     inkscape:window-x="0"
     inkscape:window-y="26"
     inkscape:window-maximized="1"
     inkscape:current-layer="layer1" />
  <defs
     id="defs2">
    <marker
       style="overflow:visible"
       id="marker1558"
       refX="0"
       refY="0"
       orient="auto-start-reverse"
       inkscape:stockid="Arrow1L"
       markerWidth="4.5"
       markerHeight="3"
       viewBox="0 0 8.75 5"
       inkscape:isstock="true"
       inkscape:collect="always"
       preserveAspectRatio="xMidYMid">
      <path
         style="fill:context-stroke;fill-rule:evenodd;stroke:none"
         d="M 0,0 5,-5 -12.5,0 5,5 Z"
         id="path1556"
         transform="scale(-0.5)" />
    </marker>
    <marker
       style="overflow:visible"
       id="marker1273"
       refX="0"
       refY="0"
       orient="auto-start-reverse"
       inkscape:stockid="Arrow1L"
       markerWidth="4.5"
       markerHeight="3"
       viewBox="0 0 8.75 5"
       inkscape:isstock="true"
       inkscape:collect="always"
       preserveAspectRatio="xMidYMid">
      <path
         style="fill:context-stroke;fill-rule:evenodd;stroke:none"
         d="M 0,0 5,-5 -12.5,0 5,5 Z"
         id="path1271"
         transform="scale(-0.5)" />
    </marker>
    <marker
       style="overflow:visible"
       id="marker1439"
       refX="0"
       refY="0"
       orient="auto-start-reverse"
       inkscape:stockid="Arrow1L"
       markerWidth="4"
       markerHeight="4"
       viewBox="0 0 8.75 5"
       inkscape:isstock="true"
       inkscape:collect="always"
       preserveAspectRatio="xMidYMid">
      <path
         style="fill:context-stroke;fill-rule:evenodd;stroke:none"
         d="M 0,0 5,-5 -12.5,0 5,5 Z"
         id="path1437"
         transform="scale(-0.5)" />
    </marker>
    <marker
       style="overflow:visible"
       id="Arrow1L"
       refX="0"
       refY="0"
       orient="auto-start-reverse"
       inkscape:stockid="Arrow1L"
       markerWidth="5"
       markerHeight="2.5"
       viewBox="0 0 8.75 5"
       inkscape:isstock="true"
       inkscape:collect="always"
       preserveAspectRatio="xMidYMid">
      <path
         style="fill:context-stroke;fill-rule:evenodd;stroke:none"
         d="M 0,0 5,-5 -12.5,0 5,5 Z"
         id="arrow1L"
         transform="scale(-0.5)" />
    </marker>
  </defs>
  <g
     inkscape:label="Layer 1"
     inkscape:groupmode="layer"
     id="layer1">
    <path
       style="fill:none;stroke:#319952;stroke-width:2;stroke-linecap:butt;stroke-linejoin:miter;stroke-opacity:1;stroke-dasharray:none;marker-end:url(#marker1558)"
       d="M 156.97912,94.021779 V 171.7317 H 67.208222"
       id="path1554"
       inkscape:export-filename="if_else_elif_statement.png"
       inkscape:export-xdpi="77.540001"
       inkscape:export-ydpi="77.540001" />
    <path
       style="fill:none;stroke:#bb1f1f;stroke-width:2;stroke-linecap:butt;stroke-linejoin:miter;stroke-dasharray:none;stroke-opacity:1;marker-end:url(#marker1439)"
       d="m 188.82621,69.983802 29.68125,-0.33699 -0.036,111.539948 -151.189043,0.45652"
       id="path1435"
       sodipodi:nodetypes="cccc" />
    <g
       id="g553"
       transform="translate(-1.5310684,15.875)">
      <g
         id="g4050">
        <rect
           style="fill:#ffe873;stroke:#4b8bbe;stroke-width:1.2;stroke-linecap:round;stroke-miterlimit:10;stroke-opacity:1;stroke-dasharray:none;fill-opacity:1"
           id="rect494"
           width="78.200592"
           height="27.541883"
           x="20.228865"
           y="118.86303" />
        <text
           xml:space="preserve"
           style="font-style:normal;font-weight:normal;font-size:10.5833px;line-height:1.25;font-family:sans-serif;letter-spacing:0px;word-spacing:0px;fill:#000000;fill-opacity:1;stroke:none;stroke-width:0.264583"
           x="59.450867"
           y="129.93726"
           id="text440-7"><tspan
             sodipodi:role="line"
             id="tspan438-1"
             style="font-style:normal;font-variant:normal;font-weight:normal;font-stretch:normal;font-family:Ubuntu;-inkscape-font-specification:Ubuntu;text-align:center;text-anchor:middle;stroke-width:0.264583"
             x="59.450867"
             y="129.93726">Body of</tspan><tspan
             sodipodi:role="line"
             style="font-style:normal;font-variant:normal;font-weight:normal;font-stretch:normal;font-family:Ubuntu;-inkscape-font-specification:Ubuntu;text-align:center;text-anchor:middle;stroke-width:0.264583"
             x="59.450867"
             y="143.40575"
             id="tspan442-1">condition</tspan></text>
      </g>
    </g>
    <g
       id="g336"
       transform="translate(95.250005,1.2126948)"
       style="stroke-width:1.2;stroke-dasharray:none">
      <rect
         style="fill:#ffe873;fill-opacity:1;stroke:#4b8bbe;stroke-width:1.23007;stroke-linecap:round;stroke-miterlimit:10;stroke-dasharray:none;stroke-opacity:1"
         id="rect328"
         width="41.748402"
         height="41.748402"
         x="75.712753"
         y="-0.40772521"
         transform="matrix(0.80839997,0.58863357,-0.80839997,0.58863357,0,0)" />
    </g>
    <path
       style="fill:none;stroke:#bb1f1f;stroke-width:2;stroke-linecap:butt;stroke-linejoin:miter;stroke-dasharray:none;stroke-opacity:1;marker-end:url(#marker1273)"
       d="m 102.36705,70.020738 h 20.80558"
       id="path1078" />
    <text
       xml:space="preserve"
       style="font-style:normal;font-weight:normal;font-size:9.05778px;line-height:0.85;font-family:sans-serif;letter-spacing:0px;word-spacing:0px;fill:#000000;fill-opacity:1;stroke:none;stroke-width:0.226445"
       x="156.52592"
       y="64.190323"
       id="text908"><tspan
         sodipodi:role="line"
         id="tspan904"
         style="font-style:normal;font-variant:normal;font-weight:normal;font-stretch:normal;font-family:Ubuntu;-inkscape-font-specification:Ubuntu;text-align:center;text-anchor:middle;stroke-width:0.226445"
         x="156.52592"
         y="64.190323">Second</tspan><tspan
         sodipodi:role="line"
         style="font-style:normal;font-variant:normal;font-weight:normal;font-stretch:normal;font-family:Ubuntu;-inkscape-font-specification:Ubuntu;text-align:center;text-anchor:middle;stroke-width:0.226445"
         x="156.52592"
         y="72.094299"
         id="tspan1012">Test</tspan><tspan
         sodipodi:role="line"
         style="font-style:normal;font-variant:normal;font-weight:normal;font-stretch:normal;font-family:Ubuntu;-inkscape-font-specification:Ubuntu;text-align:center;text-anchor:middle;stroke-width:0.226445"
         x="156.52592"
         y="79.998268"
         id="tspan906">condition</tspan></text>
    <text
       xml:space="preserve"
       style="font-style:normal;font-weight:normal;font-size:10.5833px;line-height:1.25;font-family:sans-serif;letter-spacing:0px;word-spacing:0px;fill:#319952;fill-opacity:1;stroke:none;stroke-width:0.264583"
       x="71.597603"
       y="120.66506"
       id="text440-6"><tspan
         sodipodi:role="line"
         style="font-style:normal;font-variant:normal;font-weight:normal;font-stretch:normal;font-family:Ubuntu;-inkscape-font-specification:Ubuntu;text-align:center;text-anchor:middle;fill:#319952;fill-opacity:1;stroke-width:0.264583"
         x="71.597603"
         y="120.66506"
         id="tspan442-6">True</tspan></text>
    <text
       xml:space="preserve"
       style="font-style:normal;font-weight:normal;font-size:10.5833px;line-height:1.25;font-family:sans-serif;letter-spacing:0px;word-spacing:0px;fill:#319952;fill-opacity:1;stroke:none;stroke-width:0.264583"
       x="143.58124"
       y="108.7555"
       id="text440-6-7"><tspan
         sodipodi:role="line"
         style="font-style:normal;font-variant:normal;font-weight:normal;font-stretch:normal;font-family:Ubuntu;-inkscape-font-specification:Ubuntu;text-align:center;text-anchor:middle;fill:#319952;fill-opacity:1;stroke-width:0.264583"
         x="143.58124"
         y="108.7555"
         id="tspan442-6-5">True</tspan></text>
    <text
       xml:space="preserve"
       style="font-style:normal;font-weight:normal;font-size:10.5833px;line-height:1.25;font-family:sans-serif;letter-spacing:0px;word-spacing:0px;fill:#bb1f1f;fill-opacity:1;stroke:none;stroke-width:0.264583"
       x="204.16536"
       y="81.370346"
       id="text1612"><tspan
         sodipodi:role="line"
         style="font-style:normal;font-variant:normal;font-weight:normal;font-stretch:normal;font-family:Ubuntu;-inkscape-font-specification:Ubuntu;text-align:center;text-anchor:middle;fill:#bb1f1f;fill-opacity:1;stroke-width:0.264583"
         x="204.16536"
         y="81.370346"
         id="tspan1610">False</tspan></text>
    <text
       xml:space="preserve"
       style="font-style:normal;font-weight:normal;font-size:10.5833px;line-height:1.25;font-family:sans-serif;letter-spacing:0px;word-spacing:0px;fill:#bb1f1f;fill-opacity:1;stroke:none;stroke-width:0.264583"
       x="113.7135"
       y="82.475258"
       id="text1612-3"><tspan
         sodipodi:role="line"
         style="font-style:normal;font-variant:normal;font-weight:normal;font-stretch:normal;font-family:Ubuntu;-inkscape-font-specification:Ubuntu;text-align:center;text-anchor:middle;fill:#bb1f1f;fill-opacity:1;stroke-width:0.264583"
         x="113.7135"
         y="82.475258"
         id="tspan1610-6">False</tspan></text>
    <g
       id="g553-3"
       transform="translate(159.04906,-24.074991)">
      <g
         id="g4050-6">
        <rect
           style="fill:#ffe873;fill-opacity:1;stroke:#4b8bbe;stroke-width:1.2;stroke-linecap:round;stroke-miterlimit:10;stroke-dasharray:none;stroke-opacity:1"
           id="rect494-7"
           width="78.200592"
           height="27.541883"
           x="20.228865"
           y="118.86303" />
        <text
           xml:space="preserve"
           style="font-style:normal;font-weight:normal;font-size:10.5833px;line-height:1.25;font-family:sans-serif;letter-spacing:0px;word-spacing:0px;fill:#000000;fill-opacity:1;stroke:none;stroke-width:0.264583"
           x="59.450867"
           y="129.93726"
           id="text440-7-5"><tspan
             sodipodi:role="line"
             id="tspan438-1-3"
             style="font-style:normal;font-variant:normal;font-weight:normal;font-stretch:normal;font-family:Ubuntu;-inkscape-font-specification:Ubuntu;text-align:center;text-anchor:middle;stroke-width:0.264583"
             x="59.450867"
             y="129.93726">Body of else</tspan><tspan
             sodipodi:role="line"
             style="font-style:normal;font-variant:normal;font-weight:normal;font-stretch:normal;font-family:Ubuntu;-inkscape-font-specification:Ubuntu;text-align:center;text-anchor:middle;stroke-width:0.264583"
             x="59.450867"
             y="143.40575"
             id="tspan442-1-5">condition</tspan></text>
      </g>
    </g>
    <g
       id="g553-3-3"
       transform="translate(98.757311,11.145128)">
      <g
         id="g4050-6-5">
        <g
           id="g1798"
           transform="translate(-0.86757548)">
          <rect
             style="fill:#ffe873;fill-opacity:1;stroke:#4b8bbe;stroke-width:1.2;stroke-linecap:round;stroke-miterlimit:10;stroke-dasharray:none;stroke-opacity:1"
             id="rect494-7-6"
             width="78.200592"
             height="27.541883"
             x="20.228865"
             y="118.86303" />
          <text
             xml:space="preserve"
             style="font-style:normal;font-weight:normal;font-size:10.5833px;line-height:1.25;font-family:sans-serif;letter-spacing:0px;word-spacing:0px;fill:#000000;fill-opacity:1;stroke:none;stroke-width:0.264583"
             x="59.450867"
             y="129.93726"
             id="text440-7-5-2"><tspan
               sodipodi:role="line"
               id="tspan438-1-3-9"
               style="font-style:normal;font-variant:normal;font-weight:normal;font-stretch:normal;font-family:Ubuntu;-inkscape-font-specification:Ubuntu;text-align:center;text-anchor:middle;stroke-width:0.264583"
               x="59.450867"
               y="129.93726">Body of elif</tspan><tspan
               sodipodi:role="line"
               style="font-style:normal;font-variant:normal;font-weight:normal;font-stretch:normal;font-family:Ubuntu;-inkscape-font-specification:Ubuntu;text-align:center;text-anchor:middle;stroke-width:0.264583"
               x="59.450867"
               y="143.40575"
               id="tspan442-1-5-1">condition</tspan></text>
        </g>
      </g>
    </g>
    <path
       style="fill:none;stroke:#b7b7b7;stroke-width:2;stroke-linecap:butt;stroke-linejoin:miter;stroke-dasharray:none;stroke-opacity:1;marker-end:url(#Arrow1L)"
       d="M 57.798092,4.0050217 V 30.047805"
       id="path615" />
    <path
       style="fill:none;stroke:#b7b7b7;stroke-width:2;stroke-linecap:butt;stroke-linejoin:miter;stroke-dasharray:none;stroke-opacity:1;marker-end:url(#Arrow1L)"
       d="m 57.798092,161.69672 v 26.0428"
       id="path1433" />
    <path
       style="fill:none;stroke:#319952;stroke-width:2;stroke-linecap:butt;stroke-linejoin:miter;stroke-dasharray:none;stroke-opacity:1;marker-end:url(#Arrow1L)"
       d="m 57.798092,101.18474 0,28.34641"
       id="path1431"
       sodipodi:nodetypes="cc"
       inkscape:export-filename="if_else_statement.png"
       inkscape:export-xdpi="70.860001"
       inkscape:export-ydpi="70.860001" />
    <g
       id="g1495">
      <rect
         style="fill:#ffe873;fill-opacity:1;stroke:#4b8bbe;stroke-width:1.23007;stroke-linecap:round;stroke-miterlimit:10;stroke-dasharray:none;stroke-opacity:1"
         id="rect384"
         width="56.899582"
         height="56.899582"
         x="66.855469"
         y="-4.6414347"
         transform="matrix(0.80839997,0.58863357,-0.80839997,0.58863357,0,0)" />
      <g
         id="g1488">
        <text
           xml:space="preserve"
           style="font-style:normal;font-weight:normal;font-size:10.5833px;line-height:1.25;font-family:sans-serif;letter-spacing:0px;word-spacing:0px;fill:#000000;fill-opacity:1;stroke:none;stroke-width:0.264583"
           x="57.919796"
           y="66.978348"
           id="text440"><tspan
             sodipodi:role="line"
             id="tspan438"
             style="font-style:normal;font-variant:normal;font-weight:normal;font-stretch:normal;font-family:Ubuntu;-inkscape-font-specification:Ubuntu;text-align:center;text-anchor:middle;stroke-width:0.264583"
             x="57.919796"
             y="66.978348">Test</tspan><tspan
             sodipodi:role="line"
             style="font-style:normal;font-variant:normal;font-weight:normal;font-stretch:normal;font-family:Ubuntu;-inkscape-font-specification:Ubuntu;text-align:center;text-anchor:middle;stroke-width:0.264583"
             x="57.919796"
             y="80.446838"
             id="tspan442">condition</tspan></text>
      </g>
    </g>
  </g>
</svg>
